<svg xmlns="http://www.w3.org/2000/svg" width="150.38" height="150.35" viewBox="0 0 150.38 150.35">
  <defs>
    <style>
      .cls-1 {
        fill: #fff;
        fill-rule: evenodd;
      }
    </style>
  </defs>
  <path class="cls-1" d="M1537.55,1882.48a7.964,7.964,0,0,1-5.41-9.74l0.75-2.67a12.854,12.854,0,0,0-4-12.45l-2.16-1.73a7.966,7.966,0,0,1-1.27-11.07l1.71-2.17a12.891,12.891,0,0,0,1.08-13.04l-1.34-2.42a7.956,7.956,0,0,1,3.06-10.71l2.42-1.36a12.882,12.882,0,0,0,5.98-11.63l-0.31-2.75a7.96,7.96,0,0,1,6.93-8.73l2.75-.33a12.846,12.846,0,0,0,9.97-8.46l0.78-2.65a7.938,7.938,0,0,1,9.74-5.41l2.66,0.75a12.891,12.891,0,0,0,12.45-4l1.74-2.16a7.934,7.934,0,0,1,11.06-1.27l2.18,1.71a12.848,12.848,0,0,0,13.03,1.07l2.43-1.33a7.947,7.947,0,0,1,10.71,3.06l1.36,2.41a12.872,12.872,0,0,0,11.63,5.98l2.75-.3a7.936,7.936,0,0,1,8.72,6.92l0.33,2.75a12.878,12.878,0,0,0,8.46,9.98l2.66,0.77a7.964,7.964,0,0,1,5.41,9.74l-0.75,2.66a12.864,12.864,0,0,0,4,12.46l2.16,1.73a7.957,7.957,0,0,1,1.27,11.07l-1.71,2.17a12.891,12.891,0,0,0-1.08,13.04l1.34,2.42a7.947,7.947,0,0,1-3.06,10.71l-2.42,1.36a12.872,12.872,0,0,0-5.98,11.63l0.31,2.75a7.96,7.96,0,0,1-6.93,8.73l-2.75.32a12.882,12.882,0,0,0-9.97,8.46l-0.78,2.66a7.932,7.932,0,0,1-9.73,5.41l-2.67-.75a12.891,12.891,0,0,0-12.45,4l-1.73,2.16a7.948,7.948,0,0,1-11.07,1.27l-2.18-1.71a12.848,12.848,0,0,0-13.03-1.07l-2.43,1.33a7.947,7.947,0,0,1-10.71-3.06l-1.35-2.41a12.888,12.888,0,0,0-11.64-5.98l-2.75.3a7.943,7.943,0,0,1-8.72-6.93l-0.33-2.74a12.863,12.863,0,0,0-8.46-9.98Zm119.73-14.71a63.746,63.746,0,1,0-84.09,32.52A63.742,63.742,0,0,0,1657.28,1867.77Z" transform="translate(-1523.78 -1766.81)"/>
</svg>
