<svg xmlns="http://www.w3.org/2000/svg" xmlns:xlink="http://www.w3.org/1999/xlink" preserveAspectRatio="xMidYMid" width="272" height="437" viewBox="0 0 272 437">
  <defs>
    <style>
      .cls-1 {
        fill: #bc910c;
        filter: url(#drop-shadow-1);
      }

      .cls-1, .cls-2 {
        fill-rule: evenodd;
      }

      .cls-2 {
        fill: #ffc20e;
      }
    </style>

    <filter id="drop-shadow-1" filterUnits="userSpaceOnUse">
      <feOffset dy="2" in="SourceAlpha"/>
      <feGaussianBlur result="dropBlur"/>
      <feFlood flood-opacity="0.2"/>
      <feComposite operator="in" in2="dropBlur" result="dropShadowComp"/>
      <feComposite in="SourceGraphic" result="shadowed"/>
    </filter>
  </defs>
  <g>
    <path d="M142.167,8.487 C192.753,8.487 220.088,5.181 250.852,48.158 C282.976,92.972 268.964,335.600 268.964,346.618 C268.964,357.636 267.254,393.270 243.331,410.534 C221.458,426.324 185.573,436.246 129.185,436.246 C116.534,436.246 121.664,438.816 87.140,434.408 C52.625,430.001 -0.003,428.162 -0.003,347.725 C-0.003,288.948 6.148,62.486 21.180,38.607 C30.071,24.283 58.776,9.955 84.749,9.955 C89.190,9.955 120.634,8.487 142.167,8.487 Z" class="cls-1"/>
    <path d="M142.167,1.059 C192.753,1.059 220.088,-2.247 250.852,40.730 C282.976,85.544 268.964,328.172 268.964,339.190 C268.964,350.209 267.254,385.843 243.331,403.106 C221.458,418.897 185.573,428.819 129.185,428.819 C116.534,428.819 121.664,431.388 87.140,426.980 C52.625,422.573 -0.003,420.735 -0.003,340.297 C-0.003,281.520 6.148,55.058 21.180,31.179 C30.071,16.855 58.776,2.527 84.749,2.527 C89.190,2.527 120.634,1.059 142.167,1.059 Z" class="cls-2"/>
  </g>
</svg>
